[gd_scene load_steps=3 format=2]

[ext_resource path="res://sounds/cowbell.wav" type="AudioStream" id=1]
[ext_resource path="res://main.gd" type="Script" id=2]

[node name="Control" type="Control"]
anchor_right = 1.0
anchor_bottom = 1.0
script = ExtResource( 2 )
__meta__ = {
"_edit_use_anchors_": false
}

[node name="player" type="AudioStreamPlayer" parent="."]
stream = ExtResource( 1 )
